{
    "computadores": [
            {
                "hostname": "PC-1",
                "processador": "i5 9400f",
                "memoria": "16GB",
                "armazenamento": "1TB",
                "estado": "Novo"
            },
            {
                "hostname": "PC-2",
                "processador": "i5 9400f",
                "memoria": "8GB",
                "armazenamento": "500GB",
                "estado": "Manutenção"
            },
            {
                "hostname": "PC-3",
                "processador": "i5 4690k",
                "memoria": "4GB",
                "armazenamento": "400GB",
                "estado": "Quebrado"
            },
            {
                "hostname": "PC-4",
                "processador": "i5 9400f",
                "memoria": "16GB",
                "armazenamento": "1TB",
                "estado": "Novo"
            },
            {
                "hostname": "PC-5",
                "processador": "i9 9900k",
                "memoria": "32GB",
                "armazenamento": "2TB",
                "estado": "Novo"
            }
           
        ]
    }